<?xml version="1.0" encoding="UTF-8" standalone="no"?>
<!DOCTYPE svg PUBLIC "-//W3C//DTD SVG 20010904//EN"
              "http://www.w3.org/TR/2001/REC-SVG-20010904/DTD/svg10.dtd">

<svg xmlns="http://www.w3.org/2000/svg"
     width="32px" height="32px"
     viewBox="0 0 32 32">
  <path id="Path (32)"
        fill="none" stroke="black" stroke-width="1"
        d="M 32.00,0.00
           C 32.00,32.00 32.00,32.00 0.00,32.00
             0.00,0.00 0.00,0.00 32.00,0.00M 32.00,0.00" />
</svg>
