﻿     ^                                      ^                                                        ^                                   ^    ^         
     E  E  E  Q.        E   E  E  Q.        E  E  E  Q.        E   E  E  Q.        Q    Q    Q       H        E  E     Q    Q    Q       Q    H         
E||--3--2------------|-------------------|--3--2------------|-------------------|------------1----|--0--------------|------------5----|--5----3--------|
B||--3-----3---------|---------3---------|--3-----3---------|---------3---------|--3--------------|--1--------1-----|--3--------------|--6----5--------|
G||--2--------2------|--0h--2-----2------|--2--------2------|--0h--2-----2------|------------2----|--0-----------0--|-----------------|--5----5--------|
D||--0---------------|--0----------------|--0---------------|--0----------------|-------3---------|-----------------|-------3---------|----------------|
A||------------------|-------------------|------------------|-------------------|--1--------------|--3--------------|--1--------------|--3----3--------|
E||------------------|-------------------|------------------|-------------------|-----------------|-----------------|-----------------|----------------|
  ^                                      ^                                                        ^                                   ^               
  E  E  E  Q.        E   E  E  Q.        E  E  E  Q.        E   E  E  Q.        Q    Q    Q       Q    Q    Q       Q    Q    Q       Q    Q    Q     
--3--2------------|-------------------|--3--2------------|-------------------|------------5----|--3--------------|------------5----|--3--------------|
--3-----3---------|---------3---------|--3-----3---------|---------3---------|--3--------------|--5----5---------|--3--------------|--5----6----5----|
--2--------2------|--0h--2-----2------|--2--------2------|--0h--2-----2------|-----------------|--5---------5----|-------2---------|--5--------------|
--0---------------|--0----------------|--0---------------|--0----------------|-------3---------|-----------------|-----------------|-----------------|
------------------|-------------------|------------------|-------------------|--1--------------|--3--------------|--1--------------|--3--------------|
------------------|-------------------|------------------|-------------------|-----------------|-----------------|-----------------|-----------------|

   E   E  E   E  E  E     E  E  E  E  E  E     E  E  E  E  E  E     H        E  E     Q    Q    Q       Q    H           Q    Q    Q       Q    Q    Q     
--10-------------------|--------------------|--------------------|-----------------|-----------------|----------------|-----------------|-----------------|
------10--8--10--7--8--|--3-----------------|--------------------|-----------------|-----------------|-------1--------|------------3----|-----------------|
-----------------------|-----2--0--2-----0--|-----2--0--2-----0--|-----------------|------------2----|--0----0--------|-----------------|-------0----5----|
---0-------------------|--------------4-----|--------------4-----|-----------0--2--|--3----0---------|----------------|--3--------------|--7--------------|
-----------------------|--------------------|--5-----------------|--5--------------|--1--------------|--3-------------|--1----1---------|--3--------------|
-----------------------|--------------------|--------------------|-----------------|-----------------|----------------|-----------------|-----------------|

  Q    Q    Q       Q    Q    Q       Q    Q    Q       H        Q       Q    Q    Q       Q    Q.     S S    Q    Q    Q       Q    Q    Q       Q    Q    Q     
-----------------|-----------------|-----------------|----------------|-----------------|----------------0-|--1----0---------|-----------------|-----------------|
-----------------|-------1---------|--3--------------|----------------|-----------------|-------1------3---|------------1----|-----------------|-----------------|
------------2----|--0---------0----|-------0----2----|----------------|--2---------2----|--0----0----------|-------2---------|--2---------0----|------------2----|
--3----0---------|-----------------|--0--------------|--4-------------|-------0---------|------------------|--0--------------|-------2---------|--3----0---------|
--1--------------|--3--------------|-----------------|--5--------5----|--1--------------|--3---------------|-----------------|--3--------------|--1--------------|
-----------------|-----------------|-----------------|----------------|-----------------|------------------|-----------------|-----------------|-----------------|
                                      ^                                                                                                                                
  Q    Q    Q       Q    Q    Q       H        Q       E  E  E  E  E  E     Q    Q    E  E     E  E  E  E  E  E     Q    Q    Q       Q    Q    Q       H        Q     
-----------------|-----------------|----------------|--5--------5-----5--|---------------5--|--5--------5-----5--|--3---------3----|--3----2---------|----------------|
-------1---------|-----------------|--3--------3----|-----3--3-----3-----|--3---------3-----|-----3--3-----3-----|-----------------|------------3----|----------------|
--0----0---------|-----------------|--2-------------|--------------3-----|------------------|--------------5-----|------------5----|-------2---------|--2--------0----|
------------2----|--0--------------|--4-------------|--------3-----------|-------3----------|--------5-----------|-------5---------|--0--------------|--0-------------|
--3--------------|------------0----|--5-------------|--1-----------------|--1---------------|--3-----------------|--3--------------|-----------------|----------------|
-----------------|-------3---------|----------------|--------------------|------------------|--------------------|-----------------|-----------------|----------------|

  E  E  E  E  E  E     Q    Q    Q       E  E  E  E  E  E     Q    Q    Q       Q    Q    Q       Q    Q    Q       E  E  E  E  Q       Q    Q    Q     
--------------------|-----------------|--5--------5-----5--|-----------------|--3----1----0----|-------0----1----|-----------5--5----|--5--------------|
-----------3--------|-------3---------|-----3--3-----3-----|--3--------------|-----------------|--3--------------|--2--3--5----------|-----------------|
-----0--2-----2--0--|-----------------|--------------3-----|------------3----|------------0----|------------0----|--------------2----|------------2----|
--4-----------------|--4--------------|--------3-----------|-------3---------|-------0---------|-------0---------|--------2----------|-------2---------|
--5-----------------|--5---------5----|--1-----------------|--1--------------|-----------------|-----------------|--0----------------|--0--------------|
--------------------|-----------------|--------------------|-----------------|--3--------------|--3--------------|-------------------|-----------------|
                          ^                                                                                                                                             
  E   E  E  E  E   E      H.              Q    Q    Q       Q    Q    Q       E  E  Q    Q       Q    Q    Q       Q    Q    Q       Q    Q    Q       E  E  Q    Q     
---------7-----7--10--|---9------------|-----------------|-----------------|------------------|-----------------|-----------------|-----------------|------------------|
--9--10---------------|--10------------|--3--------------|--3----3----3----|--3--1--1---------|--1---------1----|--3--------------|--3----3----3----|--3--1--1---------|
------------9---------|---9------------|------------2----|------------2----|-------------0----|-------0---------|------------2----|------------2----|-------------0----|
----------------------|---7------------|-------4---------|-------4---------|--------2---------|-----------------|-------4---------|-------4---------|--------2---------|
--7-------------------|----------------|--5--------------|--5--------------|--3---------------|--3--------------|--5--------------|--5--------------|--3---------------|
----------------------|----------------|-----------------|-----------------|------------------|-----------------|-----------------|-----------------|------------------|

  Q    Q    Q       E  E  Q    Q       Q    Q    Q       E  E  Q    Q       Q    Q    Q       E  E  Q    Q       Q    Q    Q       E  E  Q    Q       Q    Q    Q     
-----------------|------------------|-----------------|------------------|-----------------|------------------|-----------------|------------------|--3----2----2----|
------------1----|--1---------------|-----------------|-----1--1---------|------------1----|--1---------------|-----------------|-----1--1---------|------------1----|
--0---------0----|-----3--3---------|--L---------3----|--3----------0----|-------0---------|-----3--3---------|--L---------3----|--3----------0----|-------0---------|
-------2---------|--------3----3----|-------3---------|--------2---------|-----------------|--------3----3----|-------3---------|--------2---------|-----------------|
--3--------------|--1---------------|--1--------------|--3---------------|--3--------------|--1---------------|--1--------------|--3---------------|--3--------------|
-----------------|------------------|-----------------|------------------|-----------------|------------------|-----------------|------------------|-----------------|
                                                                                                             ^                      
  Q    Q    Q       Q    Q    Q       Q    Q    Q       Q    Q    Q       H        Q       Q    Q    Q       H.                     
-----------------|-----------------|--3--------------|--3----2----2----|--2-------------|--L--------------|---------------|-------||
--3--------------|--L--------------|-----------------|------------3----|--3-------------|-----------------|--3------------|-------||
------------2----|------------2----|------------2----|-------2---------|-----------2----|--0----2---------|--2------------|-------||
-------4---------|-------4---------|-------4---------|--0--------------|--0-------------|------------4----|--4------------|-------||
--5--------------|--5--------------|--5--------------|-----------------|----------------|-----------------|--5------------|-------||
-----------------|-----------------|-----------------|-----------------|----------------|-----------------|---------------|-------||




Duration Legend
---------------
W - whole
H - half
Q - quarter
E - 8th
S - 16th
T - 32nd
X - 64th
. - note dotted
|-n-|  - n-tuplets


Tablature Legend
----------------
L - tied note
x - dead note
g - grace note
(n) - ghost note
> - accentuded note
NH - natural harmonic
AH - artificial harmonic
TH - tapped harmonic
SH - semi harmonic
PH - pitch harmonic
h - hammer on
p - pull off
b - bend
br - bendRelease
pb - preBend
pbr - preBendRelease
brb - bendReleaseBend
\n/ - tremolo bar dip
\n - tremolo bar dive
-/n - tremolo bar Release up
/n\ - tremolo bar inverted dip
/n - tremolo bar return
-\n - tremolo bar Release down
S - shift slide
s - legato slide
/ -  slide into from below or out of upwards
\ -  slide into from above or out of downwards
~ - vibrato
W - wide vibrato
tr - trill
TP - tremolo picking
T - tapping
S - slap
P - pop
< - fade in
^ - brush up
v - brush down
