Title: Scattered Flowers
Tempo = 78
Track 1

Legend
L - tied note
x - dead note
h - hammer on/pull off
b - bend
s - slide
~ - vibrato
g - ghost note
> - accentuated note
t - trill
M - palm mute
. - staccato
P - popping (bass)
S - slapping (bass)
+ - tapping
W - wide vibrato
< - fade in
w - whammy bar
= - tremolo picking
v - brush up
^ - brush down
V - pick stroke up
n - pick stroke down


E |-----3-----0--5--------------3-----0--5--3----------|-----0--------3-----------------3--------0----------|-----3-----0--5--------------3-----3--8--10-7-------|
B |*-------3-----------------------3-----------5--3----|--3-----0--1-----------0--1--3-----0--3-----1--0----|--------3-----------------------3--------------8----|
G |--2-------------------------------------------------|----------------------------------------------------|--2-------------------------------------------------|
D |----------------------------------------------------|----------------------------------------------------|----------------------------------------------------|
A |*---------------------------------------------------|----------------------------------------------------|----------------------------------------------------|
E |----------------------------------------------------|----------------------------------------------------|----------------------------------------------------|

                                                  x3
-----8--7--5-----------------5--3--5----------------|-----3-----0--5--------------3-----0--5--3----------|-----0--------3-----------------3--------0----------|
--------------5-----------------------5--3---------*|--------3-----------------------3-----------5--3----|--3-----0--1-----------0--1--3-----0--3-----1--0----|
--9-----------------------------------------5--4----|--2-------------------------------------------------|----------------------------------------------------|
----------------------------------------------------|----------------------------------------------------|----------------------------------------------------|
---------------------------------------------------*|----------------------------------------------------|----------------------------------------------------|
----------------------------------------------------|----------------------------------------------------|----------------------------------------------------|


-----3-----0--5--------------3-----3--8--10-7-------|-----8--7--5-----------------8--7--5--8--10-7-------|-----8--7--5----------------------------------------|
--------3-----------------------3--------------8----|--------------5--------------------------------8----|--------------5-------------------------------------|
--2-------------------------------------------------|--9-------------------------------------------------|--9-------------------------------------------------|
----------------------------------------------------|----------------------------------------------------|--------------------------------------2-------------|
----------------------------------------------------|----------------------------------------------------|--------------------------------0-------------------|
----------------------------------------------------|----------------------------------------------------|--------------------------------------------3-------|


----------------------------|----------------------------|----------------------------|----------------------------|----------------------------|----------------------------|
----------------------------|----------------------------|----------------------------|----------------------------|-----------------------1----|--0-------------------------|
----------------------------|--------0-------------------|----------------------------|--------------------0-------|----------------------------|-----2-----------2----------|
----------------------------|--0--2--2--2----------------|-----------------------0----|--0-----2--------0----------|-----------------2--0-------|--0-----2-----------2-------|
--0-----------0--3--2-------|--2-------------------------|--2--3--0--------2--3-------|--2-----3--------------2----|--3L----------3-------------|-----3-----------------0----|
-----------------------3----|--------------3L-3--0--3----|----------------------------|----------------------------|----------------------------|----------------------------|


----------------------------|--------------------0-------|----------------------------|----------------------------|----------------------------|--------0-----------3-------|
----------------------------|----------------------------|-----------------1--0-------|----------------------------|--0--1-----------0--1--3----|--0-----1--------3-----0----|
-----0----------------------|-----------------2-----0----|--2L----------2--------0----|-----------------------0----|--------2-------------------|--7-------------------------|
--2-----0-------------------|----------------------------|----------------------------|--0--------------0--2-------|--0-------------------------|----------------------------|
-----------------0----------|--0L----------0-------------|----------------------------|--------3-------------------|----------------------------|----------------------------|
-----------------------3----|----------------------------|----------------------------|----------------------------|----------------------------|----------------------------|


-----------------0-----8----|--7--5-----------5----------|--0--3----------------------|----------------------------|
--1L----------1-----3-------|--------5-----------5-------|--------3-------------------|----------------------------|
----------------------------|--7--5-----------------2----|-----------------2-----0----|--2L----------2-------------|
----------------------------|----------------------------|----------------------------|----------------------------|
----------------------------|----------------------------|----------------------------|----------------------------|
----------------------------|----------------------------|----------------------------|----------------------------|



-----3-----0--5--------------3-----0--5--3----------|
--------3-----------------------3-----------5--3----|
--2-------------------------------------------------|
----------------------------------------------------|
----------------------------------------------------|
----------------------------------------------------|


-----0--------3-----------------3--------0----------|
--3-----0--1-----------0--1--3-----0--3-----1--0----|
----------------------------------------------------|
----------------------------------------------------|
----------------------------------------------------|
----------------------------------------------------|


-----3-----0--5--------------3-----3--8--10-7-------|
--------3-----------------------3--------------8----|
--2-------------------------------------------------|
----------------------------------------------------|
----------------------------------------------------|
----------------------------------------------------|


-----8--7--5-----------------5--3--5----------------|
--------------5-----------------------5--3----------|
--9-----------------------------------------5--4----|
----------------------------------------------------|
----------------------------------------------------|
----------------------------------------------------|


-----3-----0--5--------------3-----0--5--3----------|
--------3-----------------------3-----------5--3----|
--2-------------------------------------------------|
----------------------------------------------------|
----------------------------------------------------|
----------------------------------------------------|


-----0--------3-----------------3--------0----------|
--3-----0--1-----------0--1--3-----0--3-----1--0----|
----------------------------------------------------|
----------------------------------------------------|
----------------------------------------------------|
----------------------------------------------------|


-----3-----0--5--------------3-----3--8--10-7-------|
--------3-----------------------3--------------8----|
--2-------------------------------------------------|
----------------------------------------------------|
----------------------------------------------------|
----------------------------------------------------|


-----8--7--5-----------------8--7--5--8--10-7-------|
--------------5--------------------------------8----|
--9-------------------------------------------------|
----------------------------------------------------|
----------------------------------------------------|
----------------------------------------------------|


-----8--7--5----------------------------------------|
--------------5--------------3----------------------|
--9-----------------------------5--4--2-------------|
-----------------------------------------2--0-------|
-----------------------------------------------3----|
----------------------------------------------------|


--------------------------------------0-------------|
----------------------------------------------------|
--------------------------------2-----------0-------|
--2--0----------------------------------------------|
--------3--2--0-------------------------------------|
----------------------------------------------------|


----------------------------|----------------------------|
-----------------1--0-------|----------------------------|
--2L----------2--------0----|-----------------------0----|
----------------------------|--0--------------0--2-------|
----------------------------|--------3-------------------|
----------------------------|----------------------------|


----------------------------|--------0-----------3-------|
--0--1-----------0--1--3----|--3-----1--------3-----0----|
--------2-------------------|--4-------------------------|
--0-------------------------|----------------------------|
----------------------------|----------------------------|
----------------------------|----------------------------|


-----------------0-----8----|--7--5-----------5----------|
--1L----------1-----3-------|--------5-----------5-------|
----------------------------|--7--5-----------------2----|
----------------------------|----------------------------|
----------------------------|----------------------------|
----------------------------|----------------------------|


--0--3----------------------|--------------------0-------|
--------3-------------------|----------------------------|
-----------------2-----0----|--2--------------2-----0----|
----------------------------|----------------------------|
----------------------------|----------------------------|
----------------------------|----------------------------|


----------------------------|----------------------------|
-----------------1--0-------|----------------------------|
--2--0--------2--------0----|--------0--------------0----|
--------2--0--2-------------|--0--2--2--2-----0--2-------|
--------------3-------------|--2--2--------------3-------|
----------------------------|--3-----------3-------------|


----------------------------------------------------|
----------------------------------------------------|
----------------------------------------------------|
--------------------------------------------0-------|
-----0--2--3--0-----------------2-----3-------------|
-----------------------------------0-----0-----0----|


----------------------------------------------------------------------------|
----------------------------------------------------------------------------|
--------------------------------------------------------0-------------------|
--0-----------0-----2--------------------------0----------------------------|
--2-----0-----2--------------------------------------------------2----------|
--------8-------------------------------------------------------------------|


----------------------------|----------------------------|
-----------------------1----|--0-------------------------|
----------------------------|-----2-----2-----2----------|
-----------------2--0-------|--0-----2-----------2-------|
----------------------------|-----3-----------------0----|
----------------------------|----------------------------|


--------------------------------------------------------------------------------
--------------------------------------------------------------------------------
--------------------0-----------------------------------------------------------
--------------2-----------------0-----------------------------------------------
--------3--------------------2--------------------------------0-----------------
--3-----------------------0--3--------------------------------------------------


--------------------|
--------------------|
--------------------|
--------------------|
--------------------|
------3-------------|


--------------------------------------------------------------------------------
--------------------------------------------------------------------------------
--------------------------------------------------------------------------------
--------------------------------------------------------------------------------
--0-----------------------------------------------------------------------------
--------------------------------------------------------------------------------


--------------------------------------------------------------------|
--------------------------------------------------------------------|
---------------------------------------------------------------0----|
------------------------------2--------------------0--2-----2-------|
------------0-----------------0-----------------0--------3----------|
--------------------------------------------------------------------|


----------------------------|--------------------0--3----|
-----------------1--0-------|--------1--------3--1--5----|
--2-----------0--2--0--0----|--------2--------4----------|
--2-------------------------|--0-----2-------------------|
--3--------------------2----|--2-------------------------|
----------------------------|----------------------------|


--7--8--5--------7--8--10---|--10----12-------10-15------|
--0--10-5-------------------|--12----13-------12----12---|
--7-----5--------7--9--10---|--12----14----------12------|
--------7-------------------|--12----14------------------|
----------------------------|----------------------------|
----------------------------|----------------------------|


-----------------12-10-20---|--19-17----------17---------|
--13L---------13-13-12------|--------17----------17------|
-----------------------17---|--19-17----------17----14---|
--14L---------14-14-12------|--21-19-------------17------|
----------------------------|--------19-------------15---|
----------------------------|----------------------------|


--12-15-10------------------|--5-------------|--5-----0--0----|--5--0--0--0----|
--13----12----0--10----8----|--5--5--5--5----|--5--5--0--0----|--5-------------|
--14----12----0-------------|--5--5--5--5----|--5--5----------|----------------|
--------------12------------|----------------|-----------2----|--7--7--7--7----|
----------------------------|--7--7--7--7----|--7--7--7-------|--7--7--7--7----|
----------------------------|----------------|----------------|----------------|


--0-------------||
----------------||
----------------||
--7-------------||
--7-------------||
----------------||

