{Intro                                                                                                                                                  }
  .     .     .     .      .     .     .     .      .     .     .     .        .     .     .     .      .     .     .     .      .     .     .     .
E|------------------------|------------------------|------------------------|E|------------------------|------------------------|------------------------|
B|3-----------------3-----|3-----------------3-----|3-----------------3-----|B|3-----------------3-----|3-----------------------|3-----------------------|
G|0-----------------0-----|0-----------------0--0--|0-----------------0-----|G|0-----------------0-----|0-----------------------|0-----------------------|
D|2-----------------2--0--|3-----------------3-----|2-----------------2--0--|D|3-----------------3--1--|1-----------------------|3-----------------------|
A|------------------------|------------------------|------------------------|A|------------------------|------------------------|------------------------|
E|------------------------|------------------------|------------------------|E|------------------------|------------------------|------------------------|
{Fill 1                                                                                               } {Fill 2                                        2x}
  .     .     .     .      .     .     .     .      .     .     .     .        .     .     .     .       .     .     .     .      .     .     .     .
E|------------------------|------------------------|------------------------|E|------------------------||------------------------|------------------------||
B|------------------------|------------------------|------------------------|B|------------------------||------------------------|------------------------||
G|------0--2--4-5p4-0-----|------0--------0--------|------0--2--4h5-7-0-----|G|------0--------0--------||---------0--------0-----|------0--------0--------||
D|---0--------4--------0--|---0--------0--------0--|---0--------4--------0--|D|---0--------0--------0--||---0--0--------0-----0--|---0-----0--0-----0--0--||
A|------------------------|2/3------3--------2-----|------------------------|A|2/3------3--------2-----||------------------------|------------------------||
E|3-----------------------|------------------------|3-----------------------|E|------------------------||3-----------3-----------|3-----------3-----------||
{Chorus 1                                        4x} {Fill 1                   {Fill 1                                                                    }
   .     .     .     .      .     .     .     .       .     .     .     .        .     .     .     .      .     .     .     .      .     .     .     .
E||------------------------|------------------------||------------------------|E|------------------------|------------------------|------------------------|
B||------------3-----------|------------------------||------------------------|B|------------------------|------------------------|------------------------|
G||------0--2-----2--0-----|---0--2-----0--2-----0--||------0--2--4-5p4-0-----|G|------0--------0--------|------0--2--4h5-7-0-----|------0--------0--------|
D||---0--------4-----------|4-----------------------||---0--------4--------0--|D|---0--------0--------0--|---0--------4--------0--|---0--------0--------0--|
A||---------------------3--|---------3--------2-----||------------------------|A|2/3------3--------2-----|------------------------|2/3------3--------2-----|
E||3-----------------------|------------------------||3-----------------------|E|------------------------|3-----------------------|------------------------|
{Chorus 1                                        3x} {Fill 3                                            } {Fill 2                                        2x}
   .     .     .     .      .     .     .     .       .     .     .     .        .     .     .     .       .     .     .     .      .     .     .     .
E||------------------------|------------------------||------------------------|E|------------------------||------------------------|------------------------||
B||------------3-----------|------------------------||------3-----3-----------|B|------1--3--------1--3--||------------------------|------------------------||
G||------0--2-----2--0-----|---0--2-----0--2-----0--||------4-----2--0--------|G|---0-----------0--------||---------0--------0-----|------0--------0--------||
D||---0--------4-----------|4-----------------------||---0-----------------2--|D|------------1-----------||---0--0--------0-----0--|---0-----0--0-----0--0--||
A||---------------------3--|---------3--------2-----||------------------------|A|------------------------||------------------------|------------------------||
E||3-----------------------|------------------------||3-----------------------|E|------------------------||3-----------3-----------|3-----------3-----------||
{Chorus 2
  .     .     .     .      .     .     .     .      .     .     .     .        .     .     .     .      .     .     .     .      .     .     .     .
E|------------------------|------------------------|------------------------|E|------------------------|------------------------|------------------------|
B|------------3--------3--|------3--1-----0--------|------------3--------3--|B|------3-----------3-----|------------3--------3--|------------------------|
G|------0--2-----0--2-----|---0--------------0-----|------0--2-----0--2-----|G|---0-----0-----0-----0--|------0--2-----0--2-----|------0--2-----0--2-----|
D|---0--------3-----------|2-----------1--------1--|---0--------3-----------|D|2-----------1-----------|---0--------4-----------|---4--------4-----------|
A|------------------------|------------------------|------------------------|A|------------------------|------------------------|3-----------------------|
E|3-----------------------|------------------------|3-----------------------|E|------------------------|3-----------------------|---------------------0h2|
                                                                                                                                                        }
  .     .     .     .      .     .     .     .      .     .     .     .        .     .     .     .      .     .     .     .      .     .     .     .
E|------------------------|------------------------|------------------------|E|------------------------|------------------------|------------------------|
B|------------------------|------------------------|------------1--3-----3--|B|------------1p0-3----3--|------------1--3-----3--|------------3-----------|
G|------0--2--4--2-----0--|------X--0--------------|------0--2--2--0--------|G|------0--2--2p0-0-------|------0--2--2--0--------|------0--2--------------|
D|---0--------5--4-----2--|------X--2--------------|---0--------------------|D|---0--------------------|---0--------------------|---0--------------------|
A|------------------------|------------------------|------------------------|A|------------------------|------------------------|------------------------|
E|3-----------------------|---------------------0h2|3-----------------------|E|3-----------------------|3-----------------------|3-----------------------|
{Refrain                                                                                             2x} {Fill 4                 }{Fill 5
   .     .     .     .      .     .     .     .      .     .     .     .        .     .     .     .       .     .     .     .      .     .     .     .
E||------------------------|------------------------|------------------------|E|------------------------||------------------------|------------------------|
B||------------------------|------------3-----------|------------------------|B|------------3-----------||------------3-----------|------------------3--1--|
G||------0--2--------0--2--|---------0-----0--------|------0--2--------0--2--|G|------0--2-----2--0-----||------0--2--------------|------0--2--2/4---2-----|
D||---4--------0--4--------|------0-----------0-----|---4--------0--4--------|D|---4-----------------4--||---4--------------------|---0-----------0--------|
A||3-----------------------|---2-----------------2--|3-----------------------|A|------------------------||------------------------|------------------------|
E||------------------------|3-----------------------|------------------------|E|0-----------------------||0-----------------------|3-----------------------|
  .     .     .     .      .     .     .     .      .     .     .     .        .     .     .     .      .     .     .     .      .     .     .     .
E|------------------------|------------------------|------------------------|E|------------------------|------0-----------------|------------------------|
B|------1--------1--------|------------------3--1--|------1--------1--------|B|------------------3--3--|---------1-----0--------|------3-----3-----------|
G|---0--------0-----------|------0--2--2/4---2-----|---0--------0-----------|G|------0--2--2/4---2-----|---0--------------------|------4-----2--0--------|
D|3--------3--------2--0--|---0-----------0--------|3--------3--------2--0--|D|---0-----------0--------|3-----------3-----2--0--|---0-----------------2--|
A|------------------------|------------------------|------------------------|A|------------------------|------------------------|------------------------|
E|------------------------|3-----------------------|------------------------|E|3-----------------------|------------------------|3-----------------------|
                         } {Fill 2                                        2x}  {Chorus 2
  .     .     .     .       .     .     .     .      .     .     .     .         .     .     .     .      .     .     .     .      .     .     .     .
E|------------------------||------------------------|------------------------||E|------------------------|------------------------|------------------------|
B|------1--3--------1--3--||------------------------|------------------------||B|------------3--------3--|------3--1-----0--------|------------3--------3--|
G|---0-----------0--------||---------0--------0-----|------0--------0--------||G|------0--2-----0--2-----|---0--------------0-----|------0--2-----0--2-----|
D|------------1-----------||---0--0--------0-----0--|---0-----0--0-----0--0--||D|---0--------3-----------|2-----------1--------1--|---0--------3-----------|
A|------------------------||------------------------|------------------------||A|------------------------|------------------------|------------------------|
E|------------------------||3-----------3-----------|3-----------3-----------||E|3-----------------------|------------------------|3-----------------------|
  .     .     .     .      .     .     .     .      .     .     .     .        .     .     .     .      .     .     .     .      .     .     .     .
E|------------------------|------------------------|------------------------|E|------------------------|------------------------|------------------------|
B|------3-----------3-----|------------3--------3--|------------------------|B|------------------------|------------------------|------------1--3-----3--|
G|---0-----0-----0-----0--|------0--2-----0--2-----|------0--2-----0--2-----|G|------0--2--4--2-----0--|------X--0--------------|------0--2--2--0--------|
D|2-----------1-----------|---0--------4-----------|---4--------4-----------|D|---0--------5--4-----2--|------X--2--------------|---0--------------------|
A|------------------------|------------------------|3-----------------------|A|------------------------|------------------------|------------------------|
E|------------------------|3-----------------------|---------------------0h2|E|3-----------------------|---------------------0h2|3-----------------------|
                                                                           } {Refrain
  .     .     .     .      .     .     .     .      .     .     .     .         .     .     .     .      .     .     .     .      .     .     .     .
E|------------------------|------------------------|------------------------|E||------------------------|------------------------|------------------------|
B|------------1p0-3----3--|------------1--3-----3--|------------3-----------|B||------------------------|------------3-----------|------------------------|
G|------0--2--2p0-0-------|------0--2--2--0--------|------0--2--------------|G||------0--2--------0--2--|---------0-----0--------|------0--2--------0--2--|
D|---0--------------------|---0--------------------|---0--------------------|D||---4--------0--4--------|------0-----------0-----|---4--------0--4--------|
A|------------------------|------------------------|------------------------|A||3-----------------------|---2-----------------2--|3-----------------------|
E|3-----------------------|3-----------------------|3-----------------------|E||------------------------|3-----------------------|------------------------|
                       3x} {Fill 6                                                                     } {Fill 1
  .     .     .     .       .     .     .     .      .     .     .     .        .     .     .     .      .     .     .     .      .     .     .     .
E|------------------------||------------------------|------------------------|E|------------------------|------------------------|------------------------|
B|------------3-----------||------------------------|------------3-----------|B|------------------------|------------------------|------------------------|
G|------0--2-----2--0-----||------0--2--------0--2--|---------0-----0--------|G|------0--2--------0--2--|------0--2--4-5p4-0-----|------0--------0--------|
D|---4-----------------4--||---4--------0--4--------|------0-----------0-----|D|---4--------0--4--------|---0--------4--------0--|---0--------0--------0--|
A|------------------------||3-----------------------|---2-----------------2--|A|3-----------------------|------------------------|2/3------3--------2-----|
E|0-----------------------||------------------------|3-----------------------|E|------------------------|3-----------------------|------------------------|
                                                  } {Outro
  .     .     .     .      .     .     .     .      .     .     .     .        .     .     .     .      .     .     .     .      .     .     .     .
E|------------------------|------------------------|------------------------|E|------------------------|------------------------|------------------------|
B|------------------------|------------------------|------------------------|B|------------------------|------------------------|------------3-----------|
G|------0--2--4h5-7-0-----|------0--------0--------|------0--2--4-5p4-0-----|G|------0--------0--------|------0--2--4h5-7-0-----|---0-----0-----2--0-----|
D|---0--------4--------0--|---0--------0--------0--|---0--------4--------0--|D|---0--------0--------0--|---0--------4--------0--|------4--------------4--|
A|------------------------|2/3------3--------2-----|------------------------|A|2/3------3--------2-----|------------------------|2/3---------------------|
E|3-----------------------|------------------------|3-----------------------|E|------------------------|3-----------------------|------------------------|
                                                                           }
  .     .     .     .      .     .     .     .      .     .     .     .
E|------------------------|------------------------|------------------------|
B|3-----------------------|3-----------------------|---3--------------------|
G|0-----------------------|0-----------------------|--0---------------------|
D|1-----------------------|------------------------|-2----------------------|
A|------------------------|3-----------------------|0-----------------------|
E|------------------------|------------------------|------------------------|
